{
  "games": [
    {
      "id": 1,
      "title": "Super Mario Sunshine",
      "image": "https://i.pinimg.com/originals/1b/3c/e0/1b3ce0bbb7a9d3f5400e5b4829e9b722.jpg",
      "description": "The game takes place on the tropical Isle Delfino, where Mario, Toadsworth, Princess Peach and five Toads are taking a vacation. A villain resembling Mario, known as Shadow Mario, vandalizes the island with graffiti and leaves Mario to be wrongfully convicted for the mess. Mario is ordered to clean up Isle Delfino, using a device called the Flash Liquidizer Ultra Dousing Device (F.L.U.D.D.), while saving Princess Peach from Shadow Mario.",
      "releaseYear": "2002",
      "players": 1,
      "genres": "Platform, Action, Adventure",
      "publisher": "Nintendo",
      "gameSize": "1.35 GB",
      "price": "$29.99",
      "comments": [
        { "author": "Abraham Lincoln", "comment": "My favorite game in the Mario series!"},
        { "author": "Chuck Norris", "comment": "10/10 - This game is a masterpiece!"}
      ]
    },
    {
      "id": 2,
      "title": "The Legend of Zelda: Twilight Princess",
      "image": "https://cdn02.nintendo-europe.com/media/images/10_share_images/games_15/wiiu_14/SI_WiiU_TheLegendOfZeldaTwilightPrincessHD_image1600w.jpg",
      "description": "The story focuses on series protagonist Link, who tries to prevent Hyrule from being engulfed by a corrupted parallel dimension known as the Twilight Realm. To do so, he takes the form of both a Hylian and a wolf, and he is assisted by a mysterious creature named Midna. The game takes place hundreds of years after Ocarina of Time and between Majora's Mask and Four Swords Adventures, in an alternate timeline from The Wind Waker.",
      "releaseYear": "2006",
      "players": 1,
      "genres": "Action, Adventure",
      "publisher": "Nintendo",
      "gameSize": "4.5 GB",
      "price": "$59.99",
      "comments": [{
        "author": "Hammad Eglin",
        "comment": "mauris sit amet eros suspendisse accumsan tortor quis turpis sed ante vivamus tortor duis mattis egestas metus"
      }, {
        "author": "Adair Albone",
        "comment": "neque aenean auctor gravida sem praesent id massa id nisl"
      }, {
        "author": "Lindsey Glaysher",
        "comment": "blandit ultrices enim lorem ipsum dolor sit amet consectetuer adipiscing elit proin interdum mauris non ligula pellentesque"
      }]
    },
    {
      "id": 3,
      "title": "Call of Duty: Modern Warfare 2",
      "image": "https://generacionxbox.com/wp-content/uploads/2020/05/call-of-duty-modern-warfare-2-remastered-analisis-generacion-xbox.jpg",
      "description": "The game's campaign follows Task Force 141 (a multi-national special forces unit commanded by Captain Soap MacTavish as they hunt Vladimir Makarov, leader of the Russian Ultranationalist party), and U.S. Army Rangers from 1st Battalion/75th Ranger Regiment who are defending the Washington DC area from a Russian invasion. The game's main playable characters are Sergeant Gary \"Roach\" Sanderson, of the 141, and Private James Ramirez, of the Army Rangers, with Captain MacTavish becoming playable later in the campaign. An expansive multiplayer mode is featured in the game, with several new features and modes that were not seen in its predecessor.",
      "releaseYear": "2009",
      "players": "4+",
      "genres": "First-person shooter",
      "publisher": "Activision",
      "gameSize": "11 GB",
      "price": "$39.99",
      "comments": [{
        "author": "Emyle Goodere",
        "comment": "vel augue vestibulum rutrum rutrum neque aenean auctor gravida sem praesent id massa id nisl venenatis"
      }, {
        "author": "Ulric Klesse",
        "comment": "congue eget semper rutrum nulla nunc purus phasellus in felis donec semper sapien a libero nam dui proin leo"
      }, {
        "author": "Helaina Tolley",
        "comment": "metus sapien ut nunc vestibulum ante ipsum primis in faucibus orci luctus"
      }, {
        "author": "Todd Scaice",
        "comment": "viverra dapibus nulla suscipit ligula in lacus curabitur at ipsum ac tellus semper interdum"
      }, {
        "author": "Rosanne Scorer",
        "comment": "nulla integer pede justo lacinia eget tincidunt eget tempus vel pede morbi porttitor lorem id ligula suspendisse"
      }]
    },
    {
      "id": 4,
      "title": "Portal 2",
      "image": "https://upload.wikimedia.org/wikipedia/commons/1/12/Portal_2_Official_Logo.png",
      "description": "Portal 2 is a first-person perspective puzzle game. The player takes the role of Chell in the single-player campaign, as one of two robots—Atlas and P-Body—in the cooperative campaign, or as a simplistic humanoid icon in community-developed puzzles. These three characters can explore and interact with the environment. Characters can withstand limited damage but will die after sustained injury. There is no penalty for falling onto a solid surface, but falling into bottomless pits or toxic pools kills the player character immediately.",
      "releaseYear": "2011",
      "players": "1-2",
      "genres": "Puzzle-platform",
      "publisher": "Valve",
      "gameSize": "7.6G B",
      "price": "$19.99"
    },
    {
      "id": 5,
      "title": "Red Dead Redemption",
      "image": "https://cdn.hobbyconsolas.com/sites/navi.axelspringer.es/public/media/image/2018/10/historia-que-tienes-que-saber-antes-red-dead-redemption-2.jpg",
      "description": "Red Dead Redemption is a Western-themed action-adventure game played from a third-person perspective. The player controls John Marston and completes missions—linear scenarios with set objectives—to progress through the story; in the game's epilogue, the player controls John's son Jack. Outside of missions, players may freely roam the open world environment, consisting of the American states New Austin and West Elizabeth—fictionalized versions of the Western United States—and the fictional Mexican state of Nuevo Paraíso.",
      "releaseYear": "2010",
      "players": "4+",
      "genres": "Action, Adventure",
      "publisher": "Rockstar Games",
      "gameSize": "64 GB",
      "price": "$59.99"
    },
    {
      "id": 6,
      "title": "Bioshock",
      "image": "http://bolddarklegend.com/wp-content/uploads/2018/05/bioshock.jpg",
      "description": "BioShock is set in 1960. The player guides the protagonist, Jack, after his airplane crashes in the ocean near the bathysphere terminus that leads to the underwater city of Rapture. Built by the business magnate Andrew Ryan, the city was intended to be an isolated utopia, but the discovery of ADAM, a genetic material which can be used to grant superhuman powers, initiated the city's turbulent decline. Jack tries to find a way to escape, fighting through hordes of ADAM-obsessed enemies, and the iconic, deadly Big Daddies, while engaging with the few sane humans that remain and eventually learning of Rapture's past.",
      "releaseYear": "2007",
      "players": 1,
      "genres": "First-person shooter",
      "publisher": "2K Games",
      "gameSize": "12.5 GB",
      "price": "$29.99",
      "comments": [{
        "author": "Moina Cavanaugh",
        "comment": "sit amet cursus id turpis integer aliquet massa id lobortis convallis tortor risus dapibus augue vel accumsan tellus"
      }, {
        "author": "Ellette Daton",
        "comment": "semper interdum mauris ullamcorper purus sit amet nulla quisque arcu libero"
      }, {
        "author": "Nickola Copcote",
        "comment": "pede venenatis non sodales sed tincidunt eu felis fusce posuere felis sed lacus morbi sem"
      }, {
        "author": "Lorie Colaco",
        "comment": "luctus tincidunt nulla mollis molestie lorem quisque ut erat curabitur gravida nisi at"
      }]
    },
    {
      "id": 7,
      "title": "The Elder Scrolls V: Skyrim",
      "image": "https://news.xbox.com/es-latam/wp-content/uploads/sites/4/Skyrim_SE_KeyArt_HERO-hero-hero.jpg",
      "description": "Skyrim is set 201 years after the events of The Elder Scrolls IV: Oblivion, although it is not a direct sequel. The game takes place in Skyrim, a province of the Empire on the continent of Tamriel, amid a civil war between two factions: the Stormcloaks, led by Ulfric Stormcloak, and the Imperial Legion, led by General Tullius. The player character is a Dragonborn, a mortal born with the soul and power of a dragon. Alduin, a large black dragon who returns to the land after being lost in time, serves as the game's primary antagonist. Alduin is the first dragon created by Akatosh, one of the series' gods, and is prophesied to destroy and consume the world.",
      "releaseYear": "2011",
      "players": 1,
      "genres": "Action, RPG",
      "publisher": "Bethesda Softworks",
      "gameSize": "22.75 GB",
      "price": "$59.99",
      "comments": [{
        "author": "Suzy Le Friec",
        "comment": "aenean fermentum donec ut mauris eget massa tempor convallis nulla neque"
      }, {
        "author": "Myriam Bertson",
        "comment": "urna pretium nisl ut volutpat sapien arcu sed augue aliquam"
      }, {
        "author": "Gwennie Brusle",
        "comment": "amet consectetuer adipiscing elit proin interdum mauris non ligula pellentesque ultrices phasellus id sapien in sapien"
      }]
    },
    {
      "id": 8,
      "title": "Diablo 3",
      "image": "https://bnetcmsus-a.akamaihd.net/cms/blog_header/UXGDSU8GL3801344966729658.jpg",
      "description": "The game takes place in Sanctuary, the dark fantasy world of the Diablo Series, twenty years after the events of Diablo II. Deckard Cain and his ward Leah are in Tristram Cathedral (the same cathedral that was the setting of Diablo) investigating ancient texts regarding an ominous prophecy. A mysterious star falling from the sky strikes the Cathedral, creating a deep crater into which Deckard Cain disappears.",
      "releaseYear": "2012",
      "players": "1-4",
      "genres": "Action, RPG, Hack & Slash",
      "publisher": "Blizzard Entertainment",
      "gameSize": "25 GB",
      "price": "$49.99",
      "comments": [{
        "author": "Thaxter Prott",
        "comment": "libero non mattis pulvinar nulla pede ullamcorper augue a suscipit nulla elit ac nulla sed vel"
      }, {
        "author": "Mella Aistrop",
        "comment": "vivamus tortor duis mattis egestas metus aenean fermentum donec ut mauris"
      }, {
        "author": "Inglebert Thay",
        "comment": "cubilia curae donec pharetra magna vestibulum aliquet ultrices erat tortor sollicitudin mi sit amet lobortis sapien"
      }, {
        "author": "Gabby Colhoun",
        "comment": "tempus vivamus in felis eu sapien cursus vestibulum proin eu"
      }, {
        "author": "Koenraad Ohrtmann",
        "comment": "eget rutrum at lorem integer tincidunt ante vel ipsum praesent blandit lacinia erat vestibulum sed magna at nunc commodo placerat"
      }]
    },
    {
      "id": 9,
      "title": "God of War",
      "image": "https://image.api.playstation.com/vulcan/img/rnd/202010/2217/k1laGX3Ita2N6Jlb7BbkHYAr.png",
      "description": "While the first seven games were loosely based on Greek mythology, this installment transitions the series to Norse mythology, taking place several decades after God of War III (2010). Six of the nine realms of Norse mythology can be explored. Predating the Vikings, most of the game takes place in ancient Scandinavia in the realm of Midgard, inhabited by humans and other creatures. It is the same realm in which the Greek world had existed.",
      "releaseYear": "2018",
      "players": 1,
      "genres": "Action, Adventure, Hack & Slash",
      "publisher": "Sony Interactive Entertainment",
      "gameSize": "44.46GB",
      "price": "$59.99",
      "comments": [
        { "author": "Seneca", "comment": ""},
        { "author": "Plato", "comment": "10/10 - This game is a masterpiece!"},
        { "author": "Mars", "comment": "10/10 - This game is a masterpiece!"}
      ]
    }
  ],
  "comments": [
    {
      "id": 1,
      "comment": "Test comment on post #1",
      "postId": 1,
      "user": 1
    },
    {
      "id": 2,
      "comment": "Test comment on post #1",
      "postId": 1,
      "user": 2
    },
    {
      "id": 3,
      "comment": "Test comment on post #2",
      "postId": 2,
      "user": 3
    },
    {
      "id": 4,
      "comment": "Testing comments for Toon Link",
      "postId": 9,
      "user": 4
    },
    {
      "id": 5,
      "comment": "Testing a new comment for Zelda",
      "postId": 2,
      "user": 4
    },
    {
      "id": 6,
      "comment": "First comment for Inkling",
      "postId": 5,
      "user": 3
    }
  ],
  "authors": [
    {
      "id": 1,
      "name": "John",
      "lastName": "Wick"
    },
    {
      "id": 2,
      "name": "John",
      "lastName": "Cena"
    },
    {
      "id": 3,
      "name": "Bruce",
      "lastName": "Wayne"
    }
  ],
  "users": [
    {
      "id": 1,
      "name": "Anakin",
      "lastName": "Skywalker"
    },
    {
      "id": 2,
      "name": "Padme",
      "lastName": "Amidala"
    },
    {
      "id": 3,
      "name": "Obi-Wan",
      "lastName": "Kenobi"
    },
    {
      "id": 4,
      "name": "Lord",
      "lastName": "Grievous"
    }
  ]
}